^C:\USERS\КАТЕНЬКА\SOURCE\REPOS\SKLBOX2\DEBUG\SKLBOX2.OBJ
C:\USERS\Катенька\SOURCE\REPOS\SKLBOX2\DEBUG\SKLBOX2.EXE
C:\USERS\Катенька\SOURCE\REPOS\SKLBOX2\DEBUG\SKLBOX2.ILK
C:\USERS\КАТЕНЬКА\SOURCE\REPOS\SKLBOX2\DEBUG\SKLBOX2.PDB
